{
    "log_values": false,
    "log_discarded": false,
    "version": "1.0.0",
    "dbConfig": {
        "append_date": true,
        "base_name": "data",
        "directory": "dataBases",
        "worker_sleep": 0.1,
        "worker_mutex_timeout": 1,
        "backup_interval_m": 60,
        "backup_max_files": 10,
        "backup_subdir": "backup"
    },
    "sensorConfig": [
        {
            "type": "GPS",
            "timeout": 60,
            "polling_rate": 10
        },
        {
            "type": "ADXL357",
            "connectionType": "I2C",
            "tableName": "ADXL357_I2C",
            "m_range": 40,
            "no_temp": false,
            "poll_sleep": 0.1,

            "bus_id": 1,
            "address": "0x1D",
            "measurement_packets": 1,

            "high_speed": false
        },
        {
            "type": "ADXL357",
            "connectionType": "SPI",
            "tableName": "ADXL357_SPI",
            "m_range": 40,
            "no_temp": false,
            "poll_sleep": 0.00001,

            "bus_id": 0,
            "address": 0,
            "measurement_packets": 1,

            "spi_speed": 10000000
        }
    ]
}
